o Cube
v 0.5 0.5 -0.5
v 0.5 -0.5 -0.5
v -0.5 -0.5 -0.5
v -0.5 0.5 -0.5
v -0.5 -0.5 0.5
v 0.5 -0.5 0.5
v 0.5 0.5 0.5
v -0.5 0.5 0.5
f 1 2 3
f 3 4 1
f 5 6 7
f 7 8 5
f 3 2 6
f 6 5 3
f 2 1 7
f 7 6 2
f 1 4 8
f 8 7 1
f 4 3 5
f 5 8 4